<svg id="calendar" xmlns="http://www.w3.org/2000/svg" xmlns:xlink="http://www.w3.org/1999/xlink" width="24" height="24" viewBox="0 0 24 24">
  <defs>
    <clipPath id="clip-path">
      <rect id="calendar_calendar_check_Background_Mask_" data-name="calendar / calendar_check (Background/Mask)" width="24" height="24" fill="none"/>
    </clipPath>
  </defs>
  <rect id="calendar_calendar_check_Background_Mask_2" data-name="calendar / calendar_check (Background/Mask)" width="24" height="24" fill="none"/>
  <g id="calendar_calendar_check" data-name="calendar / calendar_check" clip-path="url(#clip-path)">
    <path id="calendar_calendar_check-2" data-name="calendar / calendar_check" d="M16,20H2a2,2,0,0,1-2-2V4A2,2,0,0,1,2,2H4V0H6V2h6V0h2V2h2a2,2,0,0,1,2,2V18A2,2,0,0,1,16,20ZM2,8V18H16L16,8ZM2,4V6H16V4ZM8,16.414H8L4.293,12.707l1.414-1.414L8,13.586l4.293-4.293,1.414,1.414L8,16.413Z" transform="translate(3 2)" fill="#09343b"/>
  </g>
</svg>
