<svg xmlns="http://www.w3.org/2000/svg" width="25.017" height="25.008" viewBox="0 0 25.017 25.008">
  <g id="marketing-circular-chart" transform="translate(0 0)">
    <path id="Path" d="M.333,6.606A5.945,5.945,0,0,1,3.4,8.273a5.943,5.943,0,0,1,1.618,3.094.416.416,0,0,0,.409.34H11.2a.416.416,0,0,0,.414-.456,12.554,12.554,0,0,0-3.587-7.6A12.549,12.549,0,0,0,.46,0,.416.416,0,0,0,0,.416V6.2A.416.416,0,0,0,.333,6.606Z" transform="translate(13.401 0)"/>
    <path id="Shape" d="M7.978,11.572A12.577,12.577,0,0,1,.156,8.833a.416.416,0,0,1-.034-.619L4.215,4.121a.416.416,0,0,1,.52-.056,5.952,5.952,0,0,0,3.243.954A5.94,5.94,0,0,0,13.822.327.417.417,0,0,1,14.228,0H20.02a.415.415,0,0,1,.413.463,12.5,12.5,0,0,1-4.117,7.9A12.509,12.509,0,0,1,7.978,11.572ZM4.755,6.115l-2.2,2.2a10.732,10.732,0,0,0,1.661.79,10.717,10.717,0,0,0,3.761.676,10.707,10.707,0,0,0,7.287-2.849,10.724,10.724,0,0,0,3.1-5.139H15.252a7.808,7.808,0,0,1-7.275,5.02A7.7,7.7,0,0,1,4.755,6.115Z" transform="translate(4.56 13.435)"/>
    <path id="Shape-2" data-name="Shape" d="M3.154,20.56H3.133a.416.416,0,0,1-.3-.152A12.556,12.556,0,0,1,11.213,0l.044,0a.418.418,0,0,1,.416.416V6.2a.418.418,0,0,1-.333.408A5.987,5.987,0,0,0,6.553,12.47a5.948,5.948,0,0,0,1.029,3.356.415.415,0,0,1-.049.527L3.448,20.438A.413.413,0,0,1,3.154,20.56Zm-.3-3.434c.149.31.311.611.481.893l.892-.893ZM2,14.565a10.639,10.639,0,0,0,.275,1.088H5.44a7.713,7.713,0,0,1-.394-1.088H2Zm-.2-2.56c-.007.158-.011.314-.011.465,0,.2.006.412.019.623H4.785c-.016-.213-.024-.423-.024-.623,0-.155,0-.308.014-.465H1.8Zm.422-2.56a10.8,10.8,0,0,0-.257,1.088H5a7.784,7.784,0,0,1,.365-1.088Zm1.131-2.56a10.793,10.793,0,0,0-.581,1.088h3.4A7.734,7.734,0,0,1,7.11,6.885H3.356ZM5.53,4.325a11,11,0,0,0-.859.827c-.075.08-.152.166-.235.261H9.258c.2-.095.414-.181.623-.256V4.325ZM9.881,2.056a10.6,10.6,0,0,0-2.14.8h2.14Z" transform="translate(0 0)"/>
  </g>
</svg>
